####
#
#	OBJ File Generated by LightWave3D
#	LightWave3D OBJ Export v2.2
#
####
#	Object: heart.lwo
#
#	                Vertices: 50
#	                  Points: 0
#	                   Lines: 0
#	                   Faces: 72
#	               Materials: 1
#
####

o heart.lwo

#	             Vertex list

v -2.65 0 4.76837e-008
v -2.9 1.65 4.76837e-008
v -1.95 2.55 4.76837e-008
v -0.6 2.5 4.76837e-008
v 7.45058e-010 1.5 4.76837e-008
v 0.05 -2.85 4.76837e-008
v -1.55 -1.35 4.76837e-008
v 2.75 0 4.76837e-008
v 3 1.65 4.76837e-008
v 2.05 2.55 4.76837e-008
v 0.6 2.45 4.76837e-008
v 1.65 -1.35 4.76837e-008
v 0.00296115 0.913012 -0.55
v -0.777862 1.85 -0.55
v -1.62107 1.85 -0.55
v -2.10312 1.39332 -0.55
v -1.93655 0.293929 -0.55
v -1.02228 -0.828122 -0.55
v 0.0120088 -1.56264 -0.55
v 1.22877 -0.820154 -0.55
v 2.13655 0.293929 -0.55
v 2.30312 1.39332 -0.55
v 1.82107 1.85 -0.55
v 0.93995 1.85 -0.55
v -0.0122287 0.00409827 -0.75
v -2.65 0 -4.76837e-008
v -2.9 1.65 -4.76837e-008
v -1.95 2.55 -4.76837e-008
v -0.6 2.5 -4.76837e-008
v 7.45058e-010 1.5 -4.76837e-008
v 0.05 -2.85 -4.76837e-008
v -1.55 -1.35 -4.76837e-008
v 2.75 0 -4.76837e-008
v 3 1.65 -4.76837e-008
v 2.05 2.55 -4.76837e-008
v 0.6 2.45 -4.76837e-008
v 1.65 -1.35 -4.76837e-008
v 0.00296115 0.913012 0.55
v -0.777862 1.85 0.55
v -1.62107 1.85 0.55
v -2.10312 1.39332 0.55
v -1.93655 0.293929 0.55
v -1.02228 -0.828122 0.55
v 0.0120088 -1.56264 0.55
v 1.22877 -0.820154 0.55
v 2.13655 0.293929 0.55
v 2.30312 1.39332 0.55
v 1.82107 1.85 0.55
v 0.93995 1.85 0.55
v -0.0122287 0.00409827 0.75

#	    Point/Line/Face list

usemtl heart
f 48 49 50
f 47 48 50
f 46 47 50
f 46 50 45
f 45 50 44
f 50 43 44
f 50 42 43
f 41 42 50
f 40 41 50
f 39 40 50
f 38 39 50
f 49 38 50
f 35 36 49
f 48 35 49
f 35 48 47
f 34 35 47
f 47 46 33
f 34 47 33
f 46 45 37
f 33 46 37
f 37 44 31
f 37 45 44
f 44 32 31
f 43 32 44
f 42 26 32
f 43 42 32
f 41 27 26
f 42 41 26
f 28 27 41
f 40 28 41
f 29 40 39
f 29 28 40
f 30 39 38
f 29 39 30
f 49 30 38
f 49 36 30
f 24 23 25
f 23 22 25
f 22 21 25
f 25 21 20
f 25 20 19
f 18 25 19
f 17 25 18
f 17 16 25
f 16 15 25
f 15 14 25
f 14 13 25
f 13 24 25
f 10 23 24
f 11 10 24
f 10 9 22
f 23 10 22
f 22 9 8
f 21 22 8
f 21 8 12
f 20 21 12
f 19 12 6
f 20 12 19
f 7 19 6
f 7 18 19
f 17 18 7
f 1 17 7
f 16 17 1
f 2 16 1
f 3 15 16
f 2 3 16
f 15 4 14
f 3 4 15
f 14 5 13
f 14 4 5
f 11 24 5
f 5 24 13

#	             End of file
